[
  {
    "name": "Tests brakes before starting drive",
    "radioValue": "",
    "check":-1

  },
  {
    "name": "Understands principle of air brakes",
    "radioValue": "",
    "check":-1
  },
  {
    "name": "Knows use of tractor protection valve",
    "radioValue": "",
    "check":-1
  },
  {
    "name": "Understands low air warning",
    "radioValue": "",
    "check":-1

  }
]
